{
  "name": "icon-sandbox-world",
  "title": "Icon Sandbox World",
  "description": "A world using the Sandbox System Builder system on Foundry VTT, containing the basics to play the ICON System by Mastiff Press.",
  "url": "https://gitlab.com/danielrbs/icon-sandbox-world",
  "manifest": "https://gitlab.com/danielrbs/icon-sandbox-world/-/raw/main/world/world.json",  
  "download":"https://gitlab.com/danielrbs/icon-sandbox-world/-/archive/main/icon-sandbox-world-main.zip",
  "author":"DMerceless",
  "flags": {},
  "version": "1.2.0",
  "minimumCoreVersion": "0.8.5",
  "compatibleCoreVersion": "9",
  "scripts": [],
  "esmodules": [],
  "styles": [],
  "languages": [],
  "packs": [],
  "system": "sandbox",
  "dependencies": [],
  "socket": false,
  "protected": false,
  "coreVersion": "9.238",
  "resetKeys": false,
  "safeMode": false,
  "systemVersion": "0.12.0"
}
